bank name: Bank Mandiri
bank description: Ng Kim Soon/Darma Saputra KCP Griya Inti Sentosa 1200020519919
category: Kas & Bank


bank name: Bank BCA
bank description: DARUMA ADIRA PRATAMA BCA KCP Griya Utama 6460452005
category: Kas & Bank


bank name: Bank Mandiri Bisnis
bank description: DARUMA ADIRA PRATAMA Mandiri KCP Jakarta Sunter Paradise 12011 1200010902653
category: Kas & Bank

{'purchase_order': {'address': 'Komplek Griya Inti Sentosa, Jalan Griya Utara '
                               'No.3, Sunter Agung, Tanjung Priok, Jakarta '
                               'Utara, 14350, DKI Jakarta.',
                    'amount_receive': '0.0',
                    'amount_receive_currency_format': 'Rp.  0,00',
                    'attachments': [],
                    'audited_by': None,
                    'company_currency': {'code': 'IDR', 'symbol': 'Rp.'},
                    'created_at': '2019-05-08T04:23:51.035Z',
                    'currency_code': 'IDR',
                    'custom_id': None,
                    'deletable': True,
                    'deleted_at': None,
                    'deliveries': [],
                    'deposit': '0.0',
                    'deposit_currency_format': 'Rp.  0,00',
                    'discount_per_lines': '0.0',
                    'discount_per_lines_currency_format': 'Rp.  0,00',
                    'discount_price': '0.0',
                    'discount_price_currency_format': 'Rp.  0,00',
                    'discount_type': {'id': 1,
                                      'name': 'Percent',
                                      'name_bahasa': 'Persen'},
                    'discount_unit': '0.0',
                    'due_date': '26/04/2019',
                    'editable': True,
                    'email': '',
                    'id': 53406817,
                    'invoices': [],
                    'is_reconciled': False,
                    'is_shipped': False,
                    'memo': 'PO-000725',
                    'message': None,
                    'original_amount': '51480.0',
                    'original_amount_currency_format': 'Rp.  51.480,00',
                    'payment_received_amount': '0.0',
                    'payment_received_amount_currency_format': 'Rp.  0,00',
                    'payments': [],
                    'person': {'address': None,
                               'billing_address': None,
                               'display_name': 'Adi Nurul Hikmah',
                               'email': '',
                               'fax': None,
                               'first_name': None,
                               'id': 4885097,
                               'last_name': None,
                               'middle_name': None,
                               'mobile': None,
                               'phone': None,
                               'tax_no': None,
                               'title': None},
                    'purchase_quote': {'id': None, 'transaction_no': None},
                    'reference_no': None,
                    'refund_from': {'category': {'id': None, 'name': None},
                                    'id': None,
                                    'name': None,
                                    'number': None},
                    'remaining': '51480.0',
                    'remaining_currency_format': 'Rp.  51.480,00',
                    'ship_via': None,
                    'shipping_address': None,
                    'shipping_date': '',
                    'shipping_price': '0.0',
                    'shipping_price_currency_format': 'Rp.  0,00',
                    'source': 'apikey',
                    'status': 'approved',
                    'subtotal': '46800.0',
                    'subtotal_currency_format': 'Rp.  46.800,00',
                    'tags': None,
                    'tags_string': '',
                    'tax': {'id': None, 'name': None, 'rate': None},
                    'tax_after_discount': True,
                    'tax_amount': '4680.0',
                    'tax_amount_currency_format': 'Rp.  4.680,00',
                    'tax_details': [{'name': 'PPN 10.0%',
                                     'tax_amount': 4680.0,
                                     'tax_amount_currency_format': 'Rp.  '
                                                                   '4.680,00'}],
                    'term': {'id': 141419, 'name': 'Custom'},
                    'token': 'yl5QFH37MaxT4vT2Ftr9EQ',
                    'tracking_no': None,
                    'transaction_date': '25/04/2019',
                    'transaction_lines_attributes': [{'amount': '46800.0',
                                                      'amount_currency_format': 'Rp.  '
                                                                                '46.800,00',
                                                      'custom_id': None,
                                                      'description': None,
                                                      'discount': None,
                                                      'has_return_line': False,
                                                      'id': 58372408,
                                                      'line_tax': {'children': [],
                                                                   'id': 6593,
                                                                   'name': 'PPN',
                                                                   'rate': '10.0'},
                                                      'product': {'archive': False,
                                                                  'code': '',
                                                                  'id': 6387823,
                                                                  'name': 'TRUSCO '
                                                                          'Stainless '
                                                                          'Steel '
                                                                          'Nail, '
                                                                          '510-6141',
                                                                  'product_custom_id': None,
                                                                  'quantity': -1.0,
                                                                  'quantity_string': '-1.0',
                                                                  'track_inventory': True},
                                                      'quantity': 1.0,
                                                      'rate': '46800.0',
                                                      'rate_currency_format': 'Rp.  '
                                                                              '46.800,00',
                                                      'remaining_quantity': 1.0,
                                                      'tax': None,
                                                      'unit': {'id': 59294,
                                                               'name': 'Unit'}}],
                    'transaction_no': 'PO-000725',
                    'transaction_status': {'id': 1,
                                           'name': 'Open',
                                           'name_bahasa': 'Belum Dibayar'},
                    'updated_at': '2019-05-08T04:23:51.035Z',
                    'use_tax_inclusive': False,
                    'warehouse': {'code': None, 'id': None, 'name': None}}}




{'person': {'address': None,
            'archive': None,
            'associate_company': 'PT Kwantum Sentosa',
            'authorization_list': {'delete': True, 'edit': True, 'merge': True},
            'bank_account_details': [{'bank_account_holder_name': '',
                                      'bank_account_number': '',
                                      'bank_branch': '',
                                      'bank_name': None,
                                      'bank_partner_id': None}],
            'billing_address': None,
            'billing_address_kabupaten': None,
            'billing_address_kecamatan': None,
            'billing_address_kelurahan': None,
            'billing_address_no': None,
            'billing_address_post_code': None,
            'billing_address_provinsi': None,
            'billing_address_rt': None,
            'billing_address_rw': None,
            'contact_group_ids': [],
            'contact_group_names': [],
            'create_transaction_auth': {'debit_memo': '/vendor_credit_memos/new?person_id=4941430',
                                        'purchase_invoice': '/purchases/new?person_id=4941430'},
            'custom_id': None,
            'default_ap_account': {'name': 'Hutang Usaha',
                                   'number': '2-20100',
                                   'path': '/accounts/2416397'},
            'default_ap_account_id': 2416397,
            'default_ar_account': {'name': 'Piutang Usaha',
                                   'number': '1-10100',
                                   'path': '/accounts/2416392'},
            'default_ar_account_id': 2416392,
            'disable_max_credit_limit': True,
            'disable_max_debit_limit': True,
            'display_name': 'Ferry',
            'email': '',
            'fax': None,
            'first_name': None,
            'id': 4941430,
            'identity_number': None,
            'identity_type': None,
            'is_customer': False,
            'is_employee': None,
            'is_others': None,
            'is_vendor': True,
            'last_name': None,
            'max_credit_limit': None,
            'max_debit_limit': None,
            'middle_name': None,
            'mobile': None,
            'other_detail': None,
            'phone': None,
            'tax_no': None,
            'term_id': None,
            'term_name': '',
            'title': None}}